<?xml version="1.0" encoding="utf-8"?>
<!-- Generator: Adobe Illustrator 23.0.0, SVG Export Plug-In . SVG Version: 6.00 Build 0)  -->
<svg version="1.1" id="Calque_1" xmlns="http://www.w3.org/2000/svg" xmlns:xlink="http://www.w3.org/1999/xlink" x="0px" y="0px"
	 viewBox="0 0 30 30" style="enable-background:new 0 0 30 30;" xml:space="preserve">
<style type="text/css">
	.st0{fill:#DBE3FF;}
</style>
<path class="st0" d="M18.2,2.6v2.6h-6.5V2.6l-3.3,0v2.6H5.3C3.5,5.2,2,6.7,2,8.5v16.2C2,26.5,3.5,28,5.3,28h19.5
	c1.8,0,3.2-1.5,3.2-3.2V8.5c0-1.8-1.5-3.3-3.2-3.3h-3.3V2.6L18.2,2.6z M24.8,24.8H5.3V10.9h19.5V24.8z"/>
<rect x="17" y="17" class="st0" width="6" height="6"/>
</svg>
